Portfolio - Time Series
…
Show the code

##Price in Thousands of Dollars
tsibble_pdx %>%
  model(ARIMA(Prices ~ pdq(2,1,2) + PDQ(0,1,2))) %>%
  forecast()

# A fable: 24 x 5 [1M]
# Key:     RegionName, .model [1]
   RegionName .model                                  year_m…¹      Prices .mean
   <chr>      <chr>                                      <mth>      <dist> <dbl>
 1 Portland   ARIMA(Prices ~ pdq(2, 1, 2) + PDQ(0, 1… 2022 Dec N(735, 2.9)  735.
 2 Portland   ARIMA(Prices ~ pdq(2, 1, 2) + PDQ(0, 1… 2023 Jan  N(737, 21)  737.
 3 Portland   ARIMA(Prices ~ pdq(2, 1, 2) + PDQ(0, 1… 2023 Feb  N(740, 75)  740.
 4 Portland   ARIMA(Prices ~ pdq(2, 1, 2) + PDQ(0, 1… 2023 Mar N(745, 156)  745.
 5 Portland   ARIMA(Prices ~ pdq(2, 1, 2) + PDQ(0, 1… 2023 Apr N(750, 255)  750.
 6 Portland   ARIMA(Prices ~ pdq(2, 1, 2) + PDQ(0, 1… 2023 May N(755, 365)  755.
 7 Portland   ARIMA(Prices ~ pdq(2, 1, 2) + PDQ(0, 1… 2023 Jun N(758, 482)  758.
 8 Portland   ARIMA(Prices ~ pdq(2, 1, 2) + PDQ(0, 1… 2023 Jul N(760, 604)  760.
 9 Portland   ARIMA(Prices ~ pdq(2, 1, 2) + PDQ(0, 1… 2023 Aug N(762, 727)  762.
10 Portland   ARIMA(Prices ~ pdq(2, 1, 2) + PDQ(0, 1… 2023 Sep N(764, 852)  764.
# … with 14 more rows, and abbreviated variable name ¹​year_month
…
