Portfolio - House Prices in Portland, OR
…
# A tibble: 4 × 5
  term     estimate std.error statistic  p.value
  <chr>       <dbl>     <dbl>     <dbl>    <dbl>
1 bedrooms    0.129    0.0433      2.99 0.00284 
2 bedrooms    0.116    0.0423      2.74 0.00623 
3 bedrooms    0.118    0.0425      2.78 0.00550 
4 bedrooms    0.147    0.0430      3.42 0.000618

Performance metrics

Show performance for every single fold:

log_res_2 %>%  collect_metrics(summarize = FALSE)

# A tibble: 32 × 5
   id    .metric   .estimator .estimate .config             
   <chr> <chr>     <chr>          <dbl> <chr>               
 1 Fold2 recall    binary         0.783 Preprocessor1_Model1
 2 Fold2 precision binary         0.824 Preprocessor1_Model1
 3 Fold2 f_meas    binary         0.803 Preprocessor1_Model1
 4 Fold2 accuracy  binary         0.808 Preprocessor1_Model1
 5 Fold2 kap       binary         0.615 Preprocessor1_Model1
 6 Fold2 sens      binary         0.783 Preprocessor1_Model1
 7 Fold2 spec      binary         0.832 Preprocessor1_Model1
 8 Fold2 roc_auc   binary         0.887 Preprocessor1_Model1
 9 Fold3 recall    binary         0.806 Preprocessor1_Model1
10 Fold3 precision binary         0.843 Preprocessor1_Model1
# … with 22 more rows
…
