Karol Orozco - House Prices in Portland, OR
…
Performance metrics

Show performance for every single fold:

Show the code

log_res_2 %>%  collect_metrics(summarize = FALSE)

# A tibble: 40 × 5
   id    .metric   .estimator .estimate .config             
   <chr> <chr>     <chr>          <dbl> <chr>               
 1 Fold1 recall    binary         0.788 Preprocessor1_Model1
 2 Fold1 precision binary         0.834 Preprocessor1_Model1
 3 Fold1 f_meas    binary         0.810 Preprocessor1_Model1
 4 Fold1 accuracy  binary         0.816 Preprocessor1_Model1
 5 Fold1 kap       binary         0.631 Preprocessor1_Model1
 6 Fold1 sens      binary         0.788 Preprocessor1_Model1
 7 Fold1 spec      binary         0.843 Preprocessor1_Model1
 8 Fold1 roc_auc   binary         0.902 Preprocessor1_Model1
 9 Fold2 recall    binary         0.783 Preprocessor1_Model1
10 Fold2 precision binary         0.824 Preprocessor1_Model1
# … with 30 more rows
…
